<svg xmlns="http://www.w3.org/2000/svg"
     viewBox="0 0 1000 600">
    <style>
        /* <![CDATA[ */
    circle {
      fill: orange;
      stroke: black;
      stroke-width: 10px; /* Note: The value of a pixel depends
                             on the view box */
    }
    /* ]]> */
    </style>

    <circle r="61" cy="154" cx="497"
            stroke-width="2" stroke="#E4AF4C"
            fill="red"
            transform="translate(34)"/>
    <circle r="60" cy="150" cx="97"
            stroke-width="2" stroke="#E4AF4C"
            fill="red"
            transform="matrix(3 1 -1 3 30 40)" />
    <circle r="60" cy="2" cx="297"
            stroke-width="2" stroke="#E4AF4C"
            fill="red"
            transform="rotate(3)"/>
    <circle r="60" cy="300" cx="397"
            stroke-width="2" stroke="#E4AF4C"
            fill="red"
            transform="scale(2)" />
    <circle r="60" cy="500" cx="397"
            stroke-width="2" stroke="#E4AF4C"
            fill="red"
            transform="skewX(3)" />
    <circle r="60" cy="400" cx="211"
            stroke-width="2" stroke="#E4AF4C"
            fill="red"
            transform="skewX(3)" />
    <circle r="60" cy="400" cx="211"
            stroke-width="2" stroke="#E4AF4C"
            fill="red"
            transform="skewY(3)matrix(3 1 -1 3 30 40)translate(34)rotate(3)scale(2)skewX(3)" />

    <line x1="0" y1="80" x2="100" y2="20" stroke="black"
          transform="matrix(3 1 -1 3 30 40)"/>
    <line x1="4" y1="80" x2="100" y2="20" stroke="black"
          transform="translate(34)"/>
    <line x1="90" y1="80" x2="100" y2="20" stroke="black"
          transform="rotate(3)"/>
    <line x1="100" y1="80" x2="100" y2="20" stroke="black"
          transform="scale(2)"/>
    <line x1="245" y1="80" x2="100" y2="20" stroke="black"
          transform="skewX(3)"/>
    <line x1="245" y1="80" x2="100" y2="20" stroke="black"
          transform="skewY(3)"/>
    <line x1="445" y1="380" x2="100" y2="20" stroke="black"
          transform="skewY(3)matrix(3 1 -1 3 30 40)translate(34)rotate(3)scale(2)skewX(3)"/>

    <ellipse cx="100" cy="214" rx="110" ry="50"
             transform="matrix(3 1 -1 3 30 40)" />
    <ellipse cx="300" cy="14" rx="110" ry="50"
             transform="translate(50)" />
    <ellipse cx="500" cy="140" rx="110" ry="50"
             transform="rotate(3)" />
    <ellipse cx="300" cy="14" rx="110" ry="50"
             transform="scale(2)" />
    <ellipse cx="500" cy="440" rx="110" ry="50"
             transform="skewX(3)" />
    <ellipse cx="500" cy="440" rx="110" ry="50"
             transform="skewY(3)" />
    <ellipse cx="380" cy="340" rx="110" ry="50"
    transform="skewY(3)matrix(3 1 -1 3 30 40)translate(34)rotate(3)scale(2)skewX(3)"/>


    <path d="M 10,30
           A 20,20 0,0,1 50,30
           A 20,20 0,0,1 90,30
           Q 90,60 50,90
           Q 10,60 10,30 z"
    transform="matrix(3 1 -1 3 30 40)"/>
    <path d="M 30,30
           A 20,20 0,0,1 50,30
           A 20,20 0,0,1 90,30
           Q 90,60 50,90
           Q 10,60 10,30 z"
          transform="translate(50)"/>
    <path d="M 30,30
           A 20,20 0,0,1 50,30
           A 20,20 0,0,1 90,30
           Q 90,60 50,90
           Q 10,60 10,30 z"
          transform="rotate(3)"/>
    <path d="M 30,30
           A 20,20 0,0,1 50,30
           A 20,20 0,0,1 90,30
           Q 90,60 50,90
           Q 10,60 10,30 z"
          transform="scale(3)"/>
    <path d="M 30,30
           A 20,20 0,0,1 50,30
           A 20,20 0,0,1 90,30
           Q 90,60 50,90
           Q 10,60 10,30 z"
          transform="skewX(3)"/>
    <path d="M 30,30
           A 20,20 0,0,1 50,30
           A 20,20 0,0,1 90,30
           Q 90,60 50,90
           Q 10,60 10,30 z"
          transform="skewY(3)"/>
    <path d="M 25,30
           A 20,20 0,0,1 50,30
           A 20,20 0,0,1 90,30
           Q 90,60 50,90
           Q 10,60 10,30 z"
    transform="skewY(3)matrix(3 1 -1 3 30 40)translate(34)rotate(3)scale(2)skewX(3)"/>


    <polyline points="211,567 100,25 250,75 100,0"
              transform="matrix(3 1 -1 3 30 40)"/>
    <polyline points="211,567 100,25 250,75 100,0"
              transform="translate(50)"/>
    <polyline points="211,567 100,25 250,75 100,0"
              transform="rotate(3)"/>
    <polyline points="211,567 100,25 250,75 100,0"
              transform="scale(3)"/>
    <polyline points="211,567 100,25 250,75 100,0"
              transform="skewX(3)"/>
    <polyline points="211,567 100,25 250,75 100,0"
              transform="skewY(3)"/>
    <polyline points="111,267 100,25 250,75 100,0"
    transform="skewY(3)matrix(3 1 -1 3 30 40)translate(34)rotate(3)scale(2)skewX(3)"/>



    <polygon points="0,100 50,25 50,75 100,0"
             transform="matrix(3 1 -1 3 30 40)"/>
    <polygon points="75,100 50,25 50,75 100,0"
             transform="translate(50)"/>
    <polygon points="450,400 50,25 50,75 100,0"
             transform="rotate(3)"/>
    <polygon points="490,400 50,25 50,75 100,0"
             transform="scale(3)"/>
    <polygon points="780,900 50,25 50,75 100,0"
             transform="skewX(3)"/>
    <polygon points="280,900 50,25 50,75 100,0"
             transform="skewY(6)"/>
    <polygon points="380,900 50,25 50,75 100,0"
    transform="skewY(3)matrix(3 1 -1 3 30 40)translate(34)rotate(3)scale(2)skewX(3)"/>


    <rect x="10" y="10" width="30" height="20" fill="red"
          transform="matrix(3 1 -1 3 30 40)" />
    <rect x="5" y="5" width="40" height="40" fill="blue"
          transform="translate(50)"/>
    <rect x="450" y="175" width="40" height="40" fill="blue"
          transform="rotate(3)"/>
    <rect x="123" y="300" width="30" height="20" fill="red"
          transform="scale(1)" />
    <rect x="200" y="500" width="40" height="40" fill="blue"
          transform="skewX(30)"/>
    <rect x="566" y="5" width="40" height="40" fill="blue"
          transform="skewY(3)"/>
    <rect x="366" y="5" width="40" height="40" fill="blue"
          transform="skewY(3)matrix(3 1 -1 3 30 40)translate(34)rotate(3)scale(2)skewX(3)"/>
</svg>
