<svg width="200" height="200" xmlns="http://www.w3.org/2000/svg"
    xmlns:xlink="http://www.w3.org/1999/xlink">
  <defs>
    <filter id="tile" x="0" y="0" width="100%" height="100%">
      <feTile in="SourceGraphic" x="50" y="50"
          width="100" height="100" />
    </filter>
  </defs>

  <image xlink:href="/files/6457/mdn_logo_only_color.png"
      x="10%" y="10%" width="80%" height="80%"
      style="filter:url(#tile);"/>
</svg>
